0    0
0    0
0.009839    19.000422
0.098393    1.937668
0.099628    2.556032
0.115628    3.085438
0.141156    3.986052
0.209786    5.186438
0.341134    3.280519
0.347344    3.274516
0.351002    3.859451
0.387217    4.381873
0.436082    4.858721
0.488841    5.100345
0.530447    5.370380
0.574878    5.550609
0.617655    5.685278
0.653279    5.513678
0.664583    5.450108
0.667093    5.449708
0.669009    5.736277
0.697889    6.249168
0.785156    5.937230
0.835228    6.105073
0.897724    6.124747
0.964258    6.080429
1.016368    6.955687
1.167172    6.272236
1.198578    6.175628
1.210177    6.273108
1.233876    6.243926
1.246394    6.608498
1.305568    6.533126
1.342149    7.331185
1.487715    6.981320
1.548457    6.950875
1.595572    6.869331
1.620244    6.936480
1.659998    8.360464
2.037078    6.874984
2.058167    6.847100
2.070680    6.852119
2.084404    6.840399
2.093105    7.028457
2.157841    6.976000
2.206669    7.219167
2.316320    6.883527
2.318341    7.137281
2.404369    6.892278
2.408523    6.891804
2.413106    7.066479
2.503723    6.879548
2.538188    6.874969
2.594559    6.806992
2.636794    6.703682
2.639812    6.962133
2.756893    6.913490
2.854184    6.731792
2.879853    6.850242
2.953271    7.103744
3.132069    7.046558
3.268447    6.848201
3.313115    6.832585
3.349424    6.795346
3.364843    6.854979
3.408476    6.929691
3.487585    7.040574
3.604448    6.977220
3.689367    6.855934
3.710086    7.398832
4.069460    7.027483
4.260753    6.717946
4.264388    6.739013
4.283431    6.765008
4.323377    6.729607
4.340118    7.032188
4.577768    6.766845
4.642984    6.745216
4.685595    6.818458
4.764421    6.782477
4.816712    6.852302
4.915425    6.750109
4.937187    6.913818
5.043315    6.871864
5.108585    6.799572
5.117387    6.906153
5.184640    6.840329
5.196957    6.841853
5.205337    6.877038
5.229385    7.309115
5.471873    7.468862
5.765928    7.225401
5.853980    7.194112
5.899284    7.254032
5.961049    7.453514
6.097480    7.585773
6.237736    7.490835
6.271433    7.527009
6.303385    7.537751
6.325400    7.623567
6.376027    7.624590
6.406217    7.606393
6.414332    7.711866
6.463550    7.981099
6.604868    7.828889
6.613620    7.950474
6.671797    8.031785
6.738798    8.099397
6.800908    8.151408
6.858027    8.152471
6.889552    8.176807
6.919886    8.222415
6.960146    8.273940
7.013197    8.213046
7.014110    8.761905
7.289629    8.526309
7.336072    8.622775
7.414906    8.763902
7.538207    8.926158
7.691788    8.906345
7.778824    8.913378
7.834148    9.124954
7.977525    9.085825
8.048679    9.039700
8.067029    9.052989
8.084096    9.105130
8.117980    9.134257
8.150037    9.221281
8.205707    9.272819
8.254984    9.844054
8.542343    9.781132
8.669637    9.800150
8.752575    9.736834
8.767789    9.907336
8.859070    9.923556
8.914230    10.075874
9.009489    9.988465
9.017695    9.995551
9.024324    10.140103
9.083922    10.328431
9.180384    10.367513
9.234588    10.677984
9.366473    10.680321
9.419442    10.979064
9.549431    11.003638
9.613348    10.983559
9.632247    11.178705
9.712527    11.117065
9.724017    11.234505
9.774806    11.294444
9.819287    11.298094
9.839987    11.518100
9.928830    11.470192
9.948387    11.660936
10.021557    11.759906
10.087452    11.745525
10.109171    11.770754
10.126763    11.919487
10.183871    12.212926
10.302227    12.970367
10.591252    12.709746
10.623138    12.768794
10.656446    12.945096
10.733247    12.941102
10.764959    13.037792
10.815002    13.229308
10.905791    13.509935
11.047843    13.452733
11.092227    13.729830
11.214584    13.608070
11.225066    13.688334
11.261053    13.707743
11.285575    13.978549
11.406731    13.862746
11.420039    13.855143
11.423657    13.958759
11.467721    14.489536
11.698820    14.231773
11.709920    14.338269
11.756755    14.380276
11.796941    14.365849
11.810530    14.419586
11.838193    14.903294
12.049404    14.718367
12.081110    15.387202
12.366008    15.255121
12.454733    15.243189
12.492386    15.275535
12.522023    15.640833
12.679117    15.674058
12.769065    15.740734
12.837587    15.673514
12.844326    15.685598
12.852477    15.784913
12.897777    15.828225
12.938864    15.967728
13.020709    15.952154
13.056324    15.943718
13.070637    16.046533
13.118275    16.021102
13.131330    16.057987
13.153002    16.191077
13.218581    16.258865
13.277911    16.619606
13.447161    16.428718
13.454615    16.501819
13.488130    16.502895
13.505867    16.710856
13.602785    16.858191
13.712596    16.902627
13.789488    16.879502
13.820138    16.850465
13.823655    17.180335
13.968008    17.017489
13.974231    17.057436
13.994357    17.229503
14.075276    17.284821
14.141119    17.285777
14.174990    17.409711
14.243879    17.452999
14.298908    17.636602
14.407566    17.553441
14.430011    17.565063
14.447031    17.724182
14.525751    17.759997
14.582089    17.942902
14.693232    17.953727
14.756563    18.012116
14.815347    18.373341
14.998504    18.205186
15.023302    18.182827
15.026701    18.205665
15.038973    18.230863
15.057226    18.308062
15.103951    18.254113
15.105219    18.308543
15.132488    18.367390
15.177319    18.371126
15.204823    18.374774
15.221815    18.394425
15.239796    18.512958
15.304559    18.566987
15.364143    18.514510
15.372967    18.514486
15.377906    18.646392
15.440256    18.699289
15.498471    18.674649
15.518663    18.724739
15.550730    18.726495
15.567696    18.935804
15.667035    18.839608
15.677422    18.924424
15.718649    18.986661
15.764924    18.958981
15.776877    19.852733
16.164100    19.590144
16.254702    19.612517
16.312502    19.820977
16.431820    19.916521
16.532717    19.831453
16.548181    20.248405
16.728343    20.123570
16.768336    20.193191
16.817641    20.859684
17.122753    20.869573
17.290288    21.047791
17.454734    20.898171
17.475974    21.089810
17.573230    21.012272
17.590885    21.069319
17.627055    21.039779
17.633407    21.465944
17.840120    21.356966
17.907501    21.324450
17.930048    21.367616
17.962222    21.397395
17.994389    21.359428
17.994524    21.570816
18.092131    21.658634
18.184489    21.573874
18.195684    21.589881
18.209004    21.597331
18.219585    21.694964
18.271055    21.660085
18.283039    21.722647
18.317269    21.738088
18.341707    22.006074
18.471386    21.887813
18.487711    21.868597
18.487760    21.944353
18.521132    21.906959
18.522101    21.916886
18.527103    21.920019
18.531295    22.364641
18.734498    22.122390
18.734647    22.511033
18.916757    22.723699
19.119818    22.547997
19.150425    22.705038
19.238462    22.646447
19.258733    22.645944
19.268946    22.798467
19.342673    22.712849
19.343249    22.741419
19.356719    22.745641
19.365743    22.837268
19.411782    22.923139
19.476504    22.927945
19.514057    22.969323
19.552859    23.452594
19.799063    23.288578
19.857825    24.190366
20.306105    23.667606
20.311553    23.905830
20.429831    23.780336
20.436262    23.774364
20.436998    23.862821
20.480457    23.824820
20.486476    23.928481
20.540453    24.082162
20.646363    23.975078
20.654648    24.070135
20.707380    24.014750
20.710294    24.348022
20.880346    24.301595
20.955846    24.341183
21.017809    24.497987
21.129527    24.462766
21.174815    24.457611
21.198042    24.516913
21.239522    24.686963
21.342383    24.695420
21.401510    24.653264
21.413639    24.868788
21.518197    24.819005
21.550050    24.909234
21.608242    24.926518
21.647028    24.905072
21.657499    25.276844
21.827140    25.386983
21.966557    25.231008
21.968914    25.691489
22.185419    25.689212
22.300249    25.574020
22.308188    25.712469
22.378222    25.711408
22.415242    25.758704
22.457159    25.720803
22.462023    25.909903
22.555058    25.925968
22.615338    26.027766
22.697572    26.120033
22.787670    26.070365
22.813119    26.049525
22.817120    26.144963
22.864658    26.281291
22.955491    26.191930
22.962637    26.192322
22.966724    26.347410
23.043160    26.260812
23.043536    26.616384
23.207605    26.640240
23.304088    26.626517
23.347366    26.639624
23.375962    26.610243
23.377404    26.678725
23.408334    27.159546
23.636266    27.399873
23.864554    27.151296
23.870763    27.481749
24.028738    27.405448
24.076970    27.369380
24.085689    27.556420
24.178701    27.602598
24.249463    27.559794
24.266731    27.556800
24.274340    27.619258
24.306299    27.647373
24.334773    27.772986
24.405958    27.707077
24.412657    27.767845
24.443005    27.794513
24.470681    27.912156
24.538238    27.963669
24.597666    27.987884
24.640260    27.983118
24.660161    27.975153
24.666716    28.045759
24.701090    28.189997
24.783397    28.101453
24.785684    28.272075
24.865189    28.269981
24.905111    28.270902
24.925674    28.283759
24.941778    28.411717
25.008087    28.457709
25.062267    28.429439
25.077149    28.493485
25.114042    28.572522
25.168259    28.560197
25.190383    28.539255
25.192280    28.560723
25.202904    28.655706
25.250225    28.610696
25.254009    28.718107
25.302644    28.694178
25.316055    28.839070
25.385933    28.972197
25.477370    29.016065
25.541213    29.083898
25.600963    29.231356
25.691337    29.207953
25.724249    29.271956
25.765641    29.426474
25.849397    29.700457
26.000936    29.618383
26.037917    29.609941
26.051386    29.685786
26.087366    29.987341
26.222743    30.216653
26.373083    30.301686
26.472868    30.396819
26.555586    30.427700
26.604621    30.440060
26.631399    30.944860
26.844214    30.781728
26.877146    30.889361
26.934595    30.828302
26.936535    30.879386
26.957965    30.903518
26.977848    30.940800
27.002398    31.099945
27.080196    31.086532
27.111352    31.075932
27.121672    31.209672
27.180597    31.446211
27.305874    31.987847
27.589652    31.745280
27.626346    31.864643
27.693958    31.891657
27.737280    31.870898
27.749307    32.301813
27.936291    32.108211
27.945857    32.231310
28.003508    32.310409
28.065223    32.560752
28.201889    32.485319
28.237621    32.965998
28.460863    32.843412
28.519508    32.869605
28.560632    33.083439
28.673647    33.013224
28.699402    33.112079
28.753628    33.187329
28.811852    33.194489
28.843771    33.202890
28.862916    33.189584
28.866616    33.225384
28.883874    33.353621
28.947715    33.310549
28.960693    33.351645
28.984909    33.364031
29.002065    33.773583
29.185158    33.656892
29.225419    33.678546
29.254653    33.780069
29.312809    33.835446
29.364805    33.849372
29.395780    33.954054
29.453889    34.091280
29.539815    34.020891
29.551788    34.047832
29.568503    34.211396
29.643578    34.169849
29.662407    34.289241
29.721349    34.286252
29.748952    34.285489
29.761961    34.380841
29.808214    34.388730
29.834290    34.463519
29.878976    34.485953
29.911010    34.794348
30.060708    34.718872
30.103939    34.740715
30.135222    34.760822
30.159755    35.317245
30.419083    35.080962
30.448072    35.108073
30.474774    35.096823
30.483519    35.101012
30.489910    35.306997
30.584182    35.377713
30.662629    35.636943
30.813670    35.528800
30.842961    35.499478
30.844881    35.534481
30.860823    35.580023
30.888211    35.636597
30.926548    35.633935
30.944631    36.082993
31.152349    35.842528
31.152407    35.904948
31.180619    36.088437
31.278217    36.127928
31.348178    36.058828
31.353415    36.068426
31.360514    36.200884
31.425367    36.253722
31.483456    36.354383
31.558815    36.283487
31.565989    36.280782
31.568453    36.554687
31.693255    36.503774
31.735377    36.534654
31.770836    36.777098
31.895810    36.652924
31.904762    36.654745
31.910201    36.665044
31.917534    36.663244
31.920431    36.718509
31.946407    36.691650
31.947737    36.754682
31.976786    37.045272
32.120673    36.894171
32.127296    36.958412
32.158916    37.135547
32.251687    37.172037
32.315002    37.230464
32.372321    37.221773
32.397357    37.858043
32.684628    37.649935
32.738228    37.687368
32.780352    37.666464
32.792224    38.290003
33.067151    38.134491
33.138945    38.222454
33.214317    38.136734
33.214773    38.240779
33.261708    38.328170
33.326114    38.439943
33.409810    38.458212
33.460845    38.486332
33.499561    38.496940
33.523842    38.511870
33.542482    38.580071
33.582028    38.788827
33.692886    38.785762
33.747391    38.836853
33.797893    39.247315
34.003531    39.116317
34.050496    39.116152
34.073976    39.256440
34.146111    39.372920
34.233407    39.511042
34.338093    39.523347
34.395799    39.601702
34.459591    39.730141
34.547595    39.633578
34.549625    39.700535
34.579547    39.678482
34.584931    39.722004
34.606417    39.774650
34.639445    39.869943
34.696416    39.846939
34.714832    39.850449
34.725395    40.023893
34.804949    40.435073
35.018305    40.196990
35.021883    40.322447
35.077219    40.270732
35.082246    40.602580
35.224950    40.687819
35.329672    40.620350
35.352290    40.611926
35.359771    40.633554
35.372802    40.788947
35.446293    41.342137
35.718656    41.135834
35.764980    41.234199
35.830324    41.541416
35.993444    41.364575
35.998281    41.372266
36.003892    41.461298
36.044816    41.492450
36.077989    41.913244
36.272786    41.711563
36.282894    41.862173
36.352968    41.873468
36.392310    41.866980
36.409111    41.916172
36.438457    42.230996
36.587890    42.221952
36.659078    42.263193
36.712858    42.210720
36.717032    42.250272
36.736419    42.650992
36.921420    42.493242
36.945727    42.479135
36.951677    42.573596
36.995716    42.664249
37.057229    42.601367
37.060650    42.657133
37.086679    42.640446
37.092393    42.722711
37.130708    42.704174
37.141612    42.805112
37.190619    42.749474
37.190951    42.821778
37.222023    42.820610
37.236649    42.877930
37.268381    43.329188
37.477326    43.148138
37.503700    43.208422
37.543222    43.278436
37.594237    43.236059
37.601468    43.239446
37.606585    43.287617
37.630500    43.361920
37.675050    43.472956
37.746155    43.619677
37.847677    43.727642
37.946683    43.689416
37.980157    43.704534
38.004117    43.704448
38.016256    43.715315
38.027102    43.736163
38.041665    43.882226
38.113681    44.142438
38.264001    44.230503
38.377697    44.188402
38.416482    44.164434
38.425598    44.164567
38.430231    44.365355
38.520241    44.374697
38.570278    44.382727
38.599360    44.596306
38.710229    44.842686
38.876686    44.763850
38.927255    44.751795
38.947646    44.788072
38.973775    45.099331
39.124924    44.928124
39.126253    45.090279
39.197412    45.065360
39.222209    45.156154
39.274778    45.109464
39.280847    45.218254
39.332518    45.611396
39.534788    45.451614
39.567472    45.924064
39.796781    45.691176
39.810968    45.832418
39.881430    45.799818
39.903355    45.809103
39.918976    45.982392
40.006712    45.883166
40.007447    45.954623
40.040316    46.091582
40.120712    46.090016
40.162582    46.067709
40.174604    46.694591
40.470449    46.370471
40.478371    46.541676
40.561297    46.642200
40.650475    46.541653
40.651295    46.564579
40.662196    46.716234
40.736353    46.885441
40.850169    46.831167
40.884447    46.981768
40.968821    46.942599
40.994748    46.953569
41.012865    47.110570
41.092102    47.084566
41.121380    47.065006
41.127621    47.570419
41.356754    47.449149
41.420029    47.422350
41.440160    47.430119
41.453888    47.485915
41.485420    47.492913
41.504237    47.779038
41.637249    47.647775
41.646517    47.765635
41.701672    47.836974
41.758911    47.851266
41.793293    47.814595
41.794454    47.826356
41.800152    48.083428
41.914925    48.096041
41.977268    48.028931
41.979119    48.041970
41.985546    48.440386
42.159388    48.241154
42.159606    48.309410
42.188780    48.631975
42.338960    48.497868
42.355380    48.779508
42.355380    49.302676
42.576970    49.141482
42.617589    49.308767
42.709763    49.233999
42.723417    49.486958
42.840555    49.399864
42.861633    49.629823
42.973980    50.518579
43.425208    51.321802
44.025995    50.838804
44.125672    50.815674
44.168270    50.816973
44.191660    50.933970
44.259308    51.023334
44.338040    51.017351
44.378382    50.998293
44.391419    51.042581
44.420015    51.228495
44.525645    51.572468
44.753412    51.467735
44.830988    51.597508
44.939994    52.084124
45.245471    51.827470
45.293764    51.775669
45.295524    52.429114
45.632902    52.061880
45.643475    52.401096
45.827768    52.495654
45.9